
      [
        {
          "-id": "1",
          "nombre": "Jon",
          "edad": "20",
          "poblacion": "Ordizia"
        },
        {
          "-id": "2",
          "nombre": "Leire",
          "edad": "22",
          "poblacion": "Irun"
        },
        {
          "-id": "3",
          "nombre": "Maria",
          "edad": "19",
          "poblacion": "Donosti"
        },
        {
          "-id": "4",
          "nombre": "Laura",
          "edad": "24",
          "poblacion":"Lazkao"
        }
      ]
    
 